^C:\USERS\DARRUS\DESKTOP\PERSONAL\PROJECTS\VULCAN_SIMPLE\MAIN.CPP
C:\USERS\DARRUS\DESKTOP\PERSONAL\PROJECTS\VULCAN_SIMPLE\DEBUG\VC141.PDB
C:\USERS\DARRUS\DESKTOP\PERSONAL\PROJECTS\VULCAN_SIMPLE\DEBUG\VC141.IDB
C:\USERS\DARRUS\DESKTOP\PERSONAL\PROJECTS\VULCAN_SIMPLE\DEBUG\MAIN.OBJ
